Processing text dataset
Found 1371 texts.
Found 13274 unique tokens.
Shape of data tensor: (1371, 1000)
Shape of label tensor: (1371, 110)
Train on 1097 samples, validate on 274 samples
Epoch 1/10

 128/1097 [==>...........................] - ETA: 25s - loss: 4.6950 - acc: 0.0391
 256/1097 [======>.......................] - ETA: 22s - loss: 4.5441 - acc: 0.2539
 384/1097 [=========>....................] - ETA: 18s - loss: 5.7137 - acc: 0.3151
 512/1097 [=============>................] - ETA: 14s - loss: 5.3633 - acc: 0.2520
 640/1097 [================>.............] - ETA: 11s - loss: 5.0466 - acc: 0.2922
 768/1097 [====================>.........] - ETA: 8s - loss: 4.7042 - acc: 0.3268 
 896/1097 [=======================>......] - ETA: 5s - loss: 4.4906 - acc: 0.3482
1024/1097 [===========================>..] - ETA: 1s - loss: 4.4210 - acc: 0.3672
1097/1097 [==============================] - 29s 27ms/step - loss: 4.3655 - acc: 0.3701 - val_loss: 2.8626 - val_acc: 0.4927
Epoch 2/10

 128/1097 [==>...........................] - ETA: 23s - loss: 2.8485 - acc: 0.4688
 256/1097 [======>.......................] - ETA: 20s - loss: 2.8742 - acc: 0.4727
 384/1097 [=========>....................] - ETA: 17s - loss: 2.9399 - acc: 0.4922
 512/1097 [=============>................] - ETA: 14s - loss: 3.1417 - acc: 0.4844
 640/1097 [================>.............] - ETA: 11s - loss: 3.1713 - acc: 0.4688
 768/1097 [====================>.........] - ETA: 8s - loss: 3.1202 - acc: 0.4674 
 896/1097 [=======================>......] - ETA: 4s - loss: 3.0828 - acc: 0.4688
1024/1097 [===========================>..] - ETA: 1s - loss: 3.0319 - acc: 0.4727
1097/1097 [==============================] - 29s 27ms/step - loss: 3.0381 - acc: 0.4695 - val_loss: 2.9111 - val_acc: 0.4927
Epoch 3/10

 128/1097 [==>...........................] - ETA: 23s - loss: 2.8823 - acc: 0.4609
 256/1097 [======>.......................] - ETA: 20s - loss: 2.8265 - acc: 0.4609
 384/1097 [=========>....................] - ETA: 17s - loss: 2.7713 - acc: 0.4714
 512/1097 [=============>................] - ETA: 14s - loss: 2.7741 - acc: 0.4590
 640/1097 [================>.............] - ETA: 11s - loss: 2.7517 - acc: 0.4562
 768/1097 [====================>.........] - ETA: 8s - loss: 2.7661 - acc: 0.4648 
 896/1097 [=======================>......] - ETA: 4s - loss: 2.7419 - acc: 0.4688
1024/1097 [===========================>..] - ETA: 1s - loss: 2.7959 - acc: 0.4688
1097/1097 [==============================] - 29s 27ms/step - loss: 2.8507 - acc: 0.4695 - val_loss: 3.1633 - val_acc: 0.4927
Epoch 4/10

 128/1097 [==>...........................] - ETA: 24s - loss: 2.9509 - acc: 0.4766
 256/1097 [======>.......................] - ETA: 20s - loss: 2.9208 - acc: 0.4609
 384/1097 [=========>....................] - ETA: 17s - loss: 2.7608 - acc: 0.4818
 512/1097 [=============>................] - ETA: 14s - loss: 2.7445 - acc: 0.4727
 640/1097 [================>.............] - ETA: 11s - loss: 2.7593 - acc: 0.4609
 768/1097 [====================>.........] - ETA: 8s - loss: 2.7041 - acc: 0.4714 
 896/1097 [=======================>......] - ETA: 4s - loss: 2.6614 - acc: 0.4654
1024/1097 [===========================>..] - ETA: 1s - loss: 2.6219 - acc: 0.4688
1097/1097 [==============================] - 29s 27ms/step - loss: 2.5979 - acc: 0.4695 - val_loss: 2.5200 - val_acc: 0.4927
Epoch 5/10

 128/1097 [==>...........................] - ETA: 23s - loss: 2.1851 - acc: 0.4922
 256/1097 [======>.......................] - ETA: 20s - loss: 2.5958 - acc: 0.4258
 384/1097 [=========>....................] - ETA: 17s - loss: 2.5663 - acc: 0.4661
 512/1097 [=============>................] - ETA: 14s - loss: 2.4715 - acc: 0.4688
 640/1097 [================>.............] - ETA: 11s - loss: 2.4638 - acc: 0.4594
 768/1097 [====================>.........] - ETA: 8s - loss: 2.4581 - acc: 0.4596 
 896/1097 [=======================>......] - ETA: 4s - loss: 2.3903 - acc: 0.4721
1024/1097 [===========================>..] - ETA: 1s - loss: 2.4068 - acc: 0.4688
1097/1097 [==============================] - 29s 27ms/step - loss: 2.3971 - acc: 0.4695 - val_loss: 2.4695 - val_acc: 0.4927
Epoch 6/10

 128/1097 [==>...........................] - ETA: 23s - loss: 2.1250 - acc: 0.5156
 256/1097 [======>.......................] - ETA: 20s - loss: 2.1912 - acc: 0.4883
 384/1097 [=========>....................] - ETA: 17s - loss: 2.1659 - acc: 0.4844
 512/1097 [=============>................] - ETA: 14s - loss: 2.1427 - acc: 0.4902
 640/1097 [================>.............] - ETA: 11s - loss: 2.2813 - acc: 0.4750
 768/1097 [====================>.........] - ETA: 8s - loss: 2.2904 - acc: 0.4779 
 896/1097 [=======================>......] - ETA: 4s - loss: 2.3269 - acc: 0.4699
1024/1097 [===========================>..] - ETA: 1s - loss: 2.3404 - acc: 0.4775
1097/1097 [==============================] - 29s 27ms/step - loss: 2.3529 - acc: 0.4740 - val_loss: 2.4524 - val_acc: 0.4927
Epoch 7/10

 128/1097 [==>...........................] - ETA: 23s - loss: 2.5858 - acc: 0.3906
 256/1097 [======>.......................] - ETA: 20s - loss: 2.4002 - acc: 0.4180
 384/1097 [=========>....................] - ETA: 17s - loss: 2.2933 - acc: 0.4427
 512/1097 [=============>................] - ETA: 14s - loss: 2.2741 - acc: 0.4434
 640/1097 [================>.............] - ETA: 11s - loss: 2.2796 - acc: 0.4375
 768/1097 [====================>.........] - ETA: 8s - loss: 2.2300 - acc: 0.4531 
 896/1097 [=======================>......] - ETA: 4s - loss: 2.2794 - acc: 0.4542
1024/1097 [===========================>..] - ETA: 1s - loss: 2.3032 - acc: 0.4570
1097/1097 [==============================] - 29s 27ms/step - loss: 2.2494 - acc: 0.4686 - val_loss: 2.5173 - val_acc: 0.4927
Epoch 8/10

 128/1097 [==>...........................] - ETA: 23s - loss: 2.0480 - acc: 0.4922
 256/1097 [======>.......................] - ETA: 20s - loss: 2.2850 - acc: 0.4727
 384/1097 [=========>....................] - ETA: 17s - loss: 2.2010 - acc: 0.4635
 512/1097 [=============>................] - ETA: 14s - loss: 2.1967 - acc: 0.4707
 640/1097 [================>.............] - ETA: 11s - loss: 2.2327 - acc: 0.4750
 768/1097 [====================>.........] - ETA: 8s - loss: 2.2340 - acc: 0.4740 
 896/1097 [=======================>......] - ETA: 4s - loss: 2.2053 - acc: 0.4844
1024/1097 [===========================>..] - ETA: 1s - loss: 2.1958 - acc: 0.4795
1097/1097 [==============================] - 29s 27ms/step - loss: 2.2018 - acc: 0.4786 - val_loss: 2.5866 - val_acc: 0.4745
Epoch 9/10

 128/1097 [==>...........................] - ETA: 23s - loss: 1.8897 - acc: 0.4766
 256/1097 [======>.......................] - ETA: 20s - loss: 1.9955 - acc: 0.4922
 384/1097 [=========>....................] - ETA: 17s - loss: 2.0160 - acc: 0.4974
 512/1097 [=============>................] - ETA: 14s - loss: 2.1062 - acc: 0.4863
 640/1097 [================>.............] - ETA: 11s - loss: 2.1490 - acc: 0.4688
 768/1097 [====================>.........] - ETA: 8s - loss: 2.1067 - acc: 0.4831 
 896/1097 [=======================>......] - ETA: 4s - loss: 2.0840 - acc: 0.4888
1024/1097 [===========================>..] - ETA: 1s - loss: 2.1831 - acc: 0.4580
1097/1097 [==============================] - 29s 27ms/step - loss: 2.1753 - acc: 0.4622 - val_loss: 2.4617 - val_acc: 0.4781
Epoch 10/10

 128/1097 [==>...........................] - ETA: 23s - loss: 2.0715 - acc: 0.4844
 256/1097 [======>.......................] - ETA: 20s - loss: 2.2239 - acc: 0.4453
 384/1097 [=========>....................] - ETA: 17s - loss: 2.1612 - acc: 0.4557
 512/1097 [=============>................] - ETA: 14s - loss: 2.1451 - acc: 0.4551
 640/1097 [================>.............] - ETA: 11s - loss: 2.1058 - acc: 0.4547
 768/1097 [====================>.........] - ETA: 8s - loss: 2.0357 - acc: 0.4688 
 896/1097 [=======================>......] - ETA: 4s - loss: 2.0076 - acc: 0.4743
1024/1097 [===========================>..] - ETA: 1s - loss: 2.0081 - acc: 0.4805
1097/1097 [==============================] - 29s 27ms/step - loss: 2.0470 - acc: 0.4813 - val_loss: 2.8196 - val_acc: 0.4927
Processing text dataset
Found 987 texts.
Found 10426 unique tokens.
Shape of data tensor: (987, 1000)
Shape of label tensor: (987, 78)
Train on 790 samples, validate on 197 samples
Epoch 1/10

128/790 [===>..........................] - ETA: 16s - loss: 4.3579 - acc: 0.0078
256/790 [========>.....................] - ETA: 13s - loss: 4.3111 - acc: 0.1367
384/790 [=============>................] - ETA: 10s - loss: 4.1016 - acc: 0.1823
512/790 [==================>...........] - ETA: 6s - loss: 4.1333 - acc: 0.1699 
640/790 [=======================>......] - ETA: 3s - loss: 4.0863 - acc: 0.1672
768/790 [============================>.] - ETA: 0s - loss: 3.9604 - acc: 0.1628
790/790 [==============================] - 21s 27ms/step - loss: 3.9534 - acc: 0.1671 - val_loss: 3.3283 - val_acc: 0.3198
Epoch 2/10

128/790 [===>..........................] - ETA: 16s - loss: 3.3652 - acc: 0.2344
256/790 [========>.....................] - ETA: 13s - loss: 3.3531 - acc: 0.2266
384/790 [=============>................] - ETA: 10s - loss: 3.3241 - acc: 0.1979
512/790 [==================>...........] - ETA: 6s - loss: 3.6070 - acc: 0.2207 
640/790 [=======================>......] - ETA: 3s - loss: 3.6651 - acc: 0.1969
768/790 [============================>.] - ETA: 0s - loss: 3.6435 - acc: 0.1940
790/790 [==============================] - 21s 27ms/step - loss: 3.6394 - acc: 0.1911 - val_loss: 3.0214 - val_acc: 0.3249
Epoch 3/10

128/790 [===>..........................] - ETA: 16s - loss: 3.1103 - acc: 0.2656
256/790 [========>.....................] - ETA: 13s - loss: 3.1127 - acc: 0.2266
384/790 [=============>................] - ETA: 10s - loss: 3.0571 - acc: 0.2526
512/790 [==================>...........] - ETA: 6s - loss: 3.0345 - acc: 0.2539 
640/790 [=======================>......] - ETA: 3s - loss: 3.0034 - acc: 0.2719
768/790 [============================>.] - ETA: 0s - loss: 2.9267 - acc: 0.2865
790/790 [==============================] - 21s 27ms/step - loss: 2.9168 - acc: 0.2873 - val_loss: 2.5951 - val_acc: 0.3147
Epoch 4/10

128/790 [===>..........................] - ETA: 16s - loss: 2.6129 - acc: 0.3281
256/790 [========>.....................] - ETA: 13s - loss: 2.6636 - acc: 0.2891
384/790 [=============>................] - ETA: 10s - loss: 2.7458 - acc: 0.2969
512/790 [==================>...........] - ETA: 6s - loss: 2.6882 - acc: 0.2988 
640/790 [=======================>......] - ETA: 3s - loss: 2.6140 - acc: 0.3312
768/790 [============================>.] - ETA: 0s - loss: 2.6867 - acc: 0.3333
790/790 [==============================] - 21s 27ms/step - loss: 2.6854 - acc: 0.3329 - val_loss: 2.6137 - val_acc: 0.3198
Epoch 5/10

128/790 [===>..........................] - ETA: 16s - loss: 2.5393 - acc: 0.2891
256/790 [========>.....................] - ETA: 13s - loss: 2.6196 - acc: 0.2773
384/790 [=============>................] - ETA: 10s - loss: 2.6349 - acc: 0.2786
512/790 [==================>...........] - ETA: 6s - loss: 2.6253 - acc: 0.3105 
640/790 [=======================>......] - ETA: 3s - loss: 2.6082 - acc: 0.3172
768/790 [============================>.] - ETA: 0s - loss: 2.5964 - acc: 0.3177
790/790 [==============================] - 21s 27ms/step - loss: 2.5816 - acc: 0.3228 - val_loss: 3.0723 - val_acc: 0.3198
Epoch 6/10

128/790 [===>..........................] - ETA: 16s - loss: 3.2374 - acc: 0.2266
256/790 [========>.....................] - ETA: 13s - loss: 2.8105 - acc: 0.3438
384/790 [=============>................] - ETA: 10s - loss: 2.7766 - acc: 0.3229
512/790 [==================>...........] - ETA: 6s - loss: 2.8071 - acc: 0.2969 
640/790 [=======================>......] - ETA: 3s - loss: 2.7695 - acc: 0.2953
768/790 [============================>.] - ETA: 0s - loss: 2.7258 - acc: 0.3086
790/790 [==============================] - 21s 27ms/step - loss: 2.7149 - acc: 0.3101 - val_loss: 2.5689 - val_acc: 0.4213
Epoch 7/10

128/790 [===>..........................] - ETA: 16s - loss: 2.3040 - acc: 0.3516
256/790 [========>.....................] - ETA: 13s - loss: 2.3884 - acc: 0.3750
384/790 [=============>................] - ETA: 10s - loss: 2.3713 - acc: 0.3932
512/790 [==================>...........] - ETA: 6s - loss: 2.4456 - acc: 0.3867 
640/790 [=======================>......] - ETA: 3s - loss: 2.5085 - acc: 0.3844
768/790 [============================>.] - ETA: 0s - loss: 2.5315 - acc: 0.3633
790/790 [==============================] - 21s 27ms/step - loss: 2.5372 - acc: 0.3608 - val_loss: 2.4960 - val_acc: 0.4315
Epoch 8/10

128/790 [===>..........................] - ETA: 16s - loss: 2.5806 - acc: 0.3594
256/790 [========>.....................] - ETA: 13s - loss: 2.6587 - acc: 0.3164
384/790 [=============>................] - ETA: 10s - loss: 2.5611 - acc: 0.3333
512/790 [==================>...........] - ETA: 6s - loss: 2.5503 - acc: 0.3262 
640/790 [=======================>......] - ETA: 3s - loss: 2.4409 - acc: 0.3625
768/790 [============================>.] - ETA: 0s - loss: 2.4666 - acc: 0.3711
790/790 [==============================] - 21s 27ms/step - loss: 2.4675 - acc: 0.3696 - val_loss: 2.5073 - val_acc: 0.4112
Epoch 9/10

128/790 [===>..........................] - ETA: 16s - loss: 2.4636 - acc: 0.3906
256/790 [========>.....................] - ETA: 13s - loss: 2.3799 - acc: 0.3750
384/790 [=============>................] - ETA: 10s - loss: 2.3000 - acc: 0.4062
512/790 [==================>...........] - ETA: 6s - loss: 2.2905 - acc: 0.4121 
640/790 [=======================>......] - ETA: 3s - loss: 2.3290 - acc: 0.4000
768/790 [============================>.] - ETA: 0s - loss: 2.4200 - acc: 0.3932
790/790 [==============================] - 21s 27ms/step - loss: 2.4236 - acc: 0.3911 - val_loss: 2.6946 - val_acc: 0.4010
Epoch 10/10

128/790 [===>..........................] - ETA: 16s - loss: 2.6560 - acc: 0.3750
256/790 [========>.....................] - ETA: 13s - loss: 2.8490 - acc: 0.3320
384/790 [=============>................] - ETA: 10s - loss: 2.7738 - acc: 0.3620
512/790 [==================>...........] - ETA: 6s - loss: 2.6772 - acc: 0.3691 
640/790 [=======================>......] - ETA: 3s - loss: 2.6139 - acc: 0.3703
768/790 [============================>.] - ETA: 0s - loss: 2.5903 - acc: 0.3789
790/790 [==============================] - 21s 27ms/step - loss: 2.5701 - acc: 0.3810 - val_loss: 2.6900 - val_acc: 0.4365
